<svg width="74" height="81" viewBox="0 0 74 81" fill="none" xmlns="http://www.w3.org/2000/svg">
<path fill-rule="evenodd" clip-rule="evenodd" d="M60.0698 9.98292C59.7464 9.98292 59.4231 9.90208 59.1402 9.74042C51.3802 5.73917 44.671 4.04167 36.6281 4.04167C28.6256 4.04167 21.0273 5.94125 14.116 9.74042C13.146 10.2658 11.9335 9.90208 11.3677 8.93208C10.8423 7.96208 11.206 6.70917 12.176 6.18375C19.6935 2.10167 27.9385 0 36.6281 0C45.2368 0 52.7543 1.89958 60.9993 6.14333C62.0098 6.66875 62.3735 7.88125 61.8481 8.85125C61.4843 9.57875 60.7973 9.98292 60.0698 9.98292Z" fill="#D7E0E2"/>
<path fill-rule="evenodd" clip-rule="evenodd" d="M2.23355 31.2017C1.82938 31.2017 1.42522 31.0804 1.06147 30.8379C0.131885 30.1913 -0.0701988 28.9383 0.576468 28.0088C4.57772 22.3504 9.67022 17.9046 15.7327 14.7925C28.4235 8.24501 44.6711 8.2046 57.4023 14.7521C63.4648 17.8642 68.5573 22.2696 72.5585 27.8875C73.2052 28.7767 73.0031 30.07 72.0736 30.7167C71.144 31.3633 69.8911 31.1613 69.2444 30.2317C65.6069 25.1392 60.9994 21.1379 55.5431 18.3492C43.9436 12.4079 29.1106 12.4079 17.5515 18.3896C12.0548 21.2188 7.4473 25.2604 3.8098 30.3529C3.48647 30.9188 2.88022 31.2017 2.23355 31.2017Z" fill="#D7E0E2"/>
<path fill-rule="evenodd" clip-rule="evenodd" d="M27.494 79.9846C26.9686 79.9846 26.4432 79.7825 26.0794 79.3783C22.5632 75.8621 20.6636 73.5987 17.9557 68.7083C15.1669 63.7371 13.7119 57.6746 13.7119 51.1675C13.7119 39.1637 23.9777 29.3829 36.5877 29.3829C49.1977 29.3829 59.4636 39.1637 59.4636 51.1675C59.4636 52.2992 58.5744 53.1883 57.4427 53.1883C56.3111 53.1883 55.4219 52.2992 55.4219 51.1675C55.4219 41.3867 46.9748 33.4246 36.5877 33.4246C26.2007 33.4246 17.7536 41.3867 17.7536 51.1675C17.7536 56.9875 19.0469 62.3629 21.5123 66.7279C24.099 71.3758 25.8773 73.3562 28.9894 76.5087C29.7573 77.3171 29.7573 78.57 28.9894 79.3783C28.5448 79.7825 28.0194 79.9846 27.494 79.9846Z" fill="#D7E0E2"/>
<path fill-rule="evenodd" clip-rule="evenodd" d="M56.4728 72.5075C51.6632 72.5075 47.4195 71.295 43.9436 68.9104C37.9215 64.8283 34.3245 58.2 34.3245 51.1675C34.3245 50.0358 35.2136 49.1467 36.3453 49.1467C37.477 49.1467 38.3661 50.0358 38.3661 51.1675C38.3661 56.8663 41.2761 62.2417 46.207 65.5558C49.0765 67.4958 52.4311 68.4254 56.4728 68.4254C57.4428 68.4254 59.0595 68.3042 60.6761 68.0213C61.7674 67.8192 62.8182 68.5467 63.0203 69.6783C63.2224 70.7696 62.4949 71.8204 61.3632 72.0225C59.0595 72.4671 57.0386 72.5075 56.4728 72.5075Z" fill="#179D4E"/>
<path fill-rule="evenodd" clip-rule="evenodd" d="M59.7441 34.458C54.3882 27.838 45.931 23.5629 36.426 23.5629C24.9476 23.5629 14.4393 29.9488 9.71054 39.8508C8.13429 43.1246 7.32596 46.9642 7.32596 51.1675C7.32596 54.32 7.60887 59.2913 10.0339 65.7579C10.438 66.8088 9.91262 67.9808 8.86179 68.3446C7.81096 68.7488 6.63887 68.1829 6.27512 67.1725C4.29471 61.8779 3.32471 56.6238 3.32471 51.1675C3.32471 46.3175 4.25429 41.9121 6.07304 38.0725C11.4485 26.7963 23.3714 19.4808 36.426 19.4808C47.2075 19.4808 56.8082 24.3571 62.9067 31.9104C62.9067 31.9104 64.411 34.1043 62.9067 35.0307C61.4024 35.9571 59.7441 34.458 59.7441 34.458Z" fill="#D7E0E2"/>
<path fill-rule="evenodd" clip-rule="evenodd" d="M66.9792 38.4496C68.7735 42.3322 69.7697 46.6206 69.7697 51.1271C69.7697 57.6746 64.1922 63.0096 57.3214 63.0096C50.4506 63.0096 44.8731 57.6746 44.8731 51.1271C44.8731 46.8025 41.1143 43.2862 36.4664 43.2862C31.8185 43.2862 28.0597 46.8025 28.0597 51.1271C28.0597 58.0383 30.7272 64.505 35.6177 69.355C39.4572 73.1542 43.1352 75.2558 48.8339 76.8321C49.9251 77.115 50.5314 78.2467 50.2485 79.2975C50.0464 80.2271 49.1976 80.8333 48.3489 80.8333C48.1872 80.8333 47.9851 80.7929 47.8235 80.7525C41.3972 78.9742 37.1939 76.5896 32.7885 72.265C27.1301 66.6471 24.0181 59.17 24.0181 51.1675C24.0181 44.62 29.5956 39.285 36.4664 39.285C43.3372 39.285 48.9147 44.62 48.9147 51.1675C48.9147 55.4921 52.6735 59.0083 57.3214 59.0083C61.9693 59.0083 65.7281 55.4921 65.7281 51.1675C65.7281 47.2482 64.859 43.5187 63.2928 40.1408C63.2928 40.1408 62.4079 37.5685 64.068 36.8606C65.7281 36.1526 66.9792 38.4496 66.9792 38.4496Z" fill="#179D4E"/>
</svg>
