<svg width="232" height="74" viewBox="0 0 232 74" fill="none" xmlns="http://www.w3.org/2000/svg">
<path fill-rule="evenodd" clip-rule="evenodd" d="M54.6722 14.5942C54.4288 14.5942 54.1855 14.5334 53.9726 14.4117C48.1326 11.4005 43.0834 10.123 37.0305 10.123C31.008 10.123 25.2897 11.5526 20.0884 14.4117C19.3584 14.8072 18.4459 14.5334 18.0201 13.8034C17.6247 13.0734 17.8984 12.1305 18.6284 11.7351C24.2859 8.663 30.4909 7.08133 37.0305 7.08133C43.5093 7.08133 49.1668 8.51091 55.3718 11.7047C56.1322 12.1001 56.4059 13.0126 56.0105 13.7426C55.7368 14.2901 55.2197 14.5942 54.6722 14.5942ZM11.1459 30.563C10.8418 30.563 10.5376 30.4717 10.2638 30.2892C9.56425 29.8026 9.41217 28.8597 9.89884 28.1601C12.9101 23.9017 16.7426 20.5559 21.3051 18.2138C30.8559 13.2863 43.0834 13.2559 52.6647 18.1834C57.2272 20.5255 61.0597 23.8409 64.0709 28.0688C64.5576 28.738 64.4055 29.7113 63.7059 30.198C63.0063 30.6847 62.0634 30.5326 61.5768 29.833C58.8393 26.0005 55.3718 22.9892 51.2655 20.8905C42.5359 16.4192 31.373 16.4192 22.6738 20.9209C18.5372 23.0501 15.0697 26.0917 12.3322 29.9242C12.0888 30.3501 11.6326 30.563 11.1459 30.563ZM30.1563 67.2759C29.7609 67.2759 29.3655 67.1238 29.0918 66.8197C26.4455 64.1734 25.0159 62.4701 22.978 58.7897C20.8793 55.0484 19.7843 50.4859 19.7843 45.5888C19.7843 36.5551 27.5101 29.1942 37.0001 29.1942C46.4901 29.1942 54.2159 36.5551 54.2159 45.5888C54.2159 46.4405 53.5468 47.1097 52.6951 47.1097C51.8434 47.1097 51.1743 46.4405 51.1743 45.5888C51.1743 38.228 44.8172 32.2359 37.0001 32.2359C29.183 32.2359 22.8259 38.228 22.8259 45.5888C22.8259 49.9688 23.7993 54.0142 25.6547 57.2992C27.6013 60.7972 28.9397 62.2876 31.2818 64.6601C31.8597 65.2684 31.8597 66.2113 31.2818 66.8197C30.9472 67.1238 30.5518 67.2759 30.1563 67.2759ZM51.9651 61.6488C48.3455 61.6488 45.1518 60.7363 42.5359 58.9417C38.0038 55.8697 35.2968 50.8813 35.2968 45.5888C35.2968 44.7372 35.9659 44.068 36.8176 44.068C37.6693 44.068 38.3384 44.7372 38.3384 45.5888C38.3384 49.8776 40.5284 53.923 44.2393 56.4172C46.3988 57.8772 48.9234 58.5767 51.9651 58.5767C52.6951 58.5767 53.9118 58.4855 55.1284 58.2726C55.9497 58.1205 56.7405 58.668 56.8926 59.5197C57.0447 60.3409 56.4972 61.1317 55.6455 61.2838C53.9118 61.6184 52.3909 61.6488 51.9651 61.6488ZM45.8513 67.9147C45.7297 67.9147 45.5776 67.8842 45.4559 67.8538C40.6197 66.5155 37.4563 64.7209 34.1409 61.4663C29.8826 57.2384 27.5405 51.6113 27.5405 45.5888C27.5405 40.6613 31.738 36.6463 36.9088 36.6463C42.0797 36.6463 46.2772 40.6613 46.2772 45.5888C46.2772 48.8434 49.1059 51.4897 52.6038 51.4897C56.1018 51.4897 58.9305 48.8434 58.9305 45.5888C58.9305 34.1217 49.0451 24.8142 36.8784 24.8142C28.2401 24.8142 20.3318 29.6201 16.773 37.0722C15.5868 39.5359 14.9784 42.4255 14.9784 45.5888C14.9784 47.9613 15.1913 51.7026 17.0163 56.5692C17.3205 57.3601 16.9251 58.2422 16.1343 58.5159C15.3434 58.8201 14.4613 58.3942 14.1876 57.6338C12.6972 53.6492 11.9672 49.6951 11.9672 45.5888C11.9672 41.9388 12.6668 38.6234 14.0355 35.7338C18.0809 27.2476 27.0538 21.7422 36.8784 21.7422C50.718 21.7422 61.9722 32.4184 61.9722 45.5584C61.9722 50.4859 57.7747 54.5009 52.6038 54.5009C47.433 54.5009 43.2355 50.4859 43.2355 45.5584C43.2355 42.3038 40.4068 39.6576 36.9088 39.6576C33.4109 39.6576 30.5822 42.3038 30.5822 45.5584C30.5822 50.7597 32.5897 55.6263 36.2701 59.2763C39.1597 62.1355 41.9276 63.7172 46.2163 64.9034C47.0376 65.1163 47.4938 65.968 47.2809 66.7588C47.1288 67.4584 46.4901 67.9147 45.8513 67.9147Z" fill="white"/>
<path fill-rule="evenodd" clip-rule="evenodd" d="M172.498 14.6855V55.748H164.745V14.6855H172.498ZM101.04 55.748V23.3204H112.963V16.8242H81.2568V23.3204H93.0195V55.748H101.04ZM123.014 55.748V36.8207C123.923 34.8425 125.839 33.8533 128.762 33.8533C129.564 33.8533 130.491 33.9246 131.542 34.0672L131.649 26.6353C130.901 26.4036 130.099 26.2878 129.243 26.2878C126.499 26.2878 124.351 27.6155 122.801 30.2711L122.587 26.8224H115.288V55.748H123.014ZM154.64 54.9059C152.662 55.8237 150.47 56.2827 148.064 56.2827C143.822 56.2827 140.369 54.9816 137.704 52.3796C135.04 49.7775 133.708 46.3111 133.708 41.9803V41.2318C133.708 38.3267 134.269 35.7291 135.392 33.439C136.515 31.1488 138.105 29.3844 140.164 28.1458C142.222 26.9071 144.57 26.2878 147.208 26.2878C151.165 26.2878 154.279 27.5353 156.551 30.0305C158.824 32.5256 159.96 36.0633 159.96 40.6436V43.7982H141.541C141.79 45.6873 142.543 47.2022 143.8 48.3428C145.056 49.4835 146.647 50.0538 148.572 50.0538C151.548 50.0538 153.874 48.9755 155.549 46.819L159.345 51.0696C158.187 52.7093 156.618 53.988 154.64 54.9059ZM152.368 38.5317H141.621C141.888 36.6069 142.499 35.1276 143.452 34.0939C144.406 33.0602 145.649 32.5434 147.181 32.5434C148.821 32.5434 150.086 33.0112 150.978 33.9469C151.869 34.8826 152.332 36.2059 152.368 37.9168V38.5317ZM187.014 55.748V14.6855H179.261V55.748H187.014ZM200.795 22.2243C200.002 22.9728 198.955 23.3471 197.654 23.3471C196.353 23.3471 195.306 22.9728 194.513 22.2243C193.72 21.4758 193.323 20.5134 193.323 19.3371C193.323 18.1786 193.711 17.2252 194.486 16.4766C195.261 15.7281 196.317 15.3538 197.654 15.3538C198.973 15.3538 200.024 15.7281 200.809 16.4766C201.593 17.2252 201.985 18.1786 201.985 19.3371C201.985 20.5134 201.588 21.4758 200.795 22.2243ZM201.53 55.748V26.8224H193.778V55.748H201.53ZM227.676 53.8365C225.412 55.4673 222.489 56.2827 218.907 56.2827C216.483 56.2827 214.331 55.8505 212.451 54.9861C210.571 54.1217 209.096 52.9365 208.027 51.4305C206.957 49.9246 206.423 48.2983 206.423 46.5517H213.748C213.819 47.924 214.327 48.9755 215.271 49.7062C216.216 50.437 217.481 50.8023 219.068 50.8023C220.547 50.8023 221.665 50.5216 222.423 49.9602C223.18 49.3988 223.559 48.6636 223.559 47.7547C223.559 46.8101 223.091 46.066 222.155 45.5225C221.22 44.9789 219.718 44.4932 217.651 44.0655C210.771 42.6219 207.332 39.699 207.332 35.2969C207.332 32.7305 208.396 30.5874 210.526 28.8676C212.656 27.1477 215.441 26.2878 218.88 26.2878C222.552 26.2878 225.488 27.1522 227.689 28.8809C229.89 30.6097 230.991 32.8553 230.991 35.6177H223.265C223.265 34.5128 222.908 33.5994 222.195 32.8776C221.482 32.1558 220.369 31.7949 218.854 31.7949C217.553 31.7949 216.546 32.0889 215.833 32.6771C215.12 33.2652 214.763 34.0137 214.763 34.9227C214.763 35.7781 215.169 36.4688 215.98 36.9945C216.791 37.5203 218.159 37.9747 220.083 38.3579C222.008 38.7411 223.63 39.1733 224.949 39.6545C229.03 41.1516 231.071 43.7447 231.071 47.4339C231.071 50.0716 229.939 52.2058 227.676 53.8365Z" fill="white"/>
</svg>
